[gd_scene load_steps=3 format=2]

[ext_resource path="res://Enemies/Enemy.gd" type="Script" id=1]
[ext_resource path="res://Assets/sfx_exp_shortest_hard5.wav" type="AudioStream" id=2]

[node name="Enemy" type="KinematicBody2D"]

input_pickable = false
collision_layer = 2
collision_mask = 5
collision/safe_margin = 0.08
script = ExtResource( 1 )
_sections_unfolded = [ "Angular", "Collision", "Z Index", "collision" ]
SPEED = null

[node name="CollisionShape2D" type="CollisionShape2D" parent="." index="0"]

_sections_unfolded = [ "Visibility" ]

[node name="AnimatedSprite" type="AnimatedSprite" parent="." index="1"]

animation = "default"
_sections_unfolded = [ "Z Index" ]

[node name="VisibilityNotifier2D" type="VisibilityNotifier2D" parent="." index="2"]

rect = Rect2( -10, -10, 20, 20 )

[node name="Pause" type="Timer" parent="." index="3"]

process_mode = 1
wait_time = 0.25
one_shot = true
autostart = false

[node name="Explosion" type="AudioStreamPlayer2D" parent="." index="4"]

stream = ExtResource( 2 )
volume_db = -10.0
autoplay = false
max_distance = 2000.0
attenuation = 1.0
bus = "Master"
area_mask = 1

[connection signal="screen_exited" from="VisibilityNotifier2D" to="." method="_on_screen_exited"]

[connection signal="timeout" from="Pause" to="." method="_on_Pause_timeout"]


