[gd_scene load_steps=9 format=2]

[ext_resource path="res://Player/Player.gd" type="Script" id=1]
[ext_resource path="res://Assets/SI2_ship_move.png" type="Texture" id=2]
[ext_resource path="res://Assets/ship.png" type="Texture" id=3]
[ext_resource path="res://Assets/SI2_ship_death.png" type="Texture" id=4]
[ext_resource path="res://Assets/sfx_wpn_laser2.wav" type="AudioStream" id=5]
[ext_resource path="res://Assets/sfx_exp_long4.wav" type="AudioStream" id=6]

[sub_resource type="SpriteFrames" id=1]

animations = [ {
"frames": [ ExtResource( 2 ) ],
"loop": true,
"name": "right",
"speed": 5.0
}, {
"frames": [ ExtResource( 3 ) ],
"loop": true,
"name": "default",
"speed": 5.0
}, {
"frames": [ ExtResource( 4 ) ],
"loop": true,
"name": "explode",
"speed": 5.0
} ]
_sections_unfolded = [ "Resource" ]

[sub_resource type="CircleShape2D" id=2]

custom_solver_bias = 0.0
radius = 8.27068

[node name="Player" type="Area2D"]

position = Vector2( 240, 544 )
z_index = 2
input_pickable = true
gravity_vec = Vector2( 0, 1 )
gravity = 98.0
linear_damp = 0.1
angular_damp = 1.0
audio_bus_override = false
audio_bus_name = "Master"
script = ExtResource( 1 )
_sections_unfolded = [ "Transform", "Z Index" ]
__meta__ = {
"_edit_group_": true
}
SPEED = 300

[node name="AnimatedSprite" type="AnimatedSprite" parent="." index="0"]

frames = SubResource( 1 )
animation = "default"
_sections_unfolded = [ "Transform" ]

[node name="CollisionShape2D" type="CollisionShape2D" parent="." index="1"]

shape = SubResource( 2 )
_sections_unfolded = [ "Transform", "Visibility" ]

[node name="Pew" type="AudioStreamPlayer2D" parent="." index="2"]

stream = ExtResource( 5 )
volume_db = -15.0
autoplay = false
max_distance = 2000.0
attenuation = 1.0
bus = "Master"
area_mask = 1

[node name="DeathPause" type="Timer" parent="." index="3"]

process_mode = 1
wait_time = 1.5
one_shot = true
autostart = false

[node name="Explosion" type="AudioStreamPlayer2D" parent="." index="4"]

stream = ExtResource( 6 )
volume_db = 0.0
autoplay = false
max_distance = 2000.0
attenuation = 1.0
bus = "Master"
area_mask = 1

[connection signal="body_entered" from="." to="." method="_on_Player_body_entered"]


